<svg width="25" height="22" viewBox="0 0 25 22" fill="none" xmlns="http://www.w3.org/2000/svg">
<circle cx="11" cy="11" r="11" fill="#A0ED63"/>
<path d="M19.4 5L18.272 6.20857L21.936 10.1429L9 10.1429L9 11.8571L21.936 11.8571L18.264 15.7914L19.4 17L25 11L19.4 5Z" fill="white"/>
</svg>
