<svg width="38" height="40" viewBox="0 0 38 40" fill="none" xmlns="http://www.w3.org/2000/svg">
<circle cx="10" cy="30" r="10" fill="#81C04F"/>
<path d="M32 30.9995H5V33.9995H32V30.9995Z" fill="#323232"/>
<path d="M32.0002 7H8.00024V22C8.00024 25.315 10.6852 28 14.0002 28H23.0002C26.3152 28 29.0002 25.315 29.0002 22V17.5H32.0002C33.6652 17.5 35.0002 16.165 35.0002 14.5V10C35.0002 8.335 33.6652 7 32.0002 7ZM26.0002 22C26.0002 23.65 24.6502 25 23.0002 25H14.0002C12.3502 25 11.0002 23.65 11.0002 22V10H15.5002V12.1L12.7852 14.275C12.6052 14.41 12.5002 14.635 12.5002 14.86V21.25C12.5002 21.67 12.8302 22 13.2502 22H19.2502C19.6702 22 20.0002 21.67 20.0002 21.25V14.86C20.0002 14.635 19.8952 14.41 19.7152 14.275L17.0002 12.1V10H26.0002V22ZM16.2502 13.42L18.5002 15.22V20.5H14.0002V15.22L16.2502 13.42ZM32.0002 14.5H29.0002V10H32.0002V14.5Z" fill="#323232"/>
<circle cx="30.5" cy="7.5" r="7.5" fill="#81C04F"/>
</svg>
